{
  "images" : [
    {
      "resizing" : {
        "mode" : "9-part",
        "center" : {
          "mode" : "tile",
          "width" : 1,
          "height" : 1
        },
        "cap-insets" : {
          "bottom" : 15,
          "top" : 14,
          "right" : 14,
          "left" : 14
        }
      },
      "idiom" : "universal",
      "filename" : "small_grey_edit_button.png",
      "scale" : "1x"
    },
    {
      "resizing" : {
        "mode" : "9-part",
        "center" : {
          "mode" : "tile",
          "width" : 1,
          "height" : 1
        },
        "cap-insets" : {
          "bottom" : 30,
          "top" : 29,
          "right" : 28,
          "left" : 28
        }
      },
      "idiom" : "universal",
      "filename" : "small_grey_edit_button@2x.png",
      "scale" : "2x"
    },
    {
      "resizing" : {
        "mode" : "9-part",
        "center" : {
          "mode" : "tile",
          "width" : 1,
          "height" : 1
        },
        "cap-insets" : {
          "bottom" : 45,
          "top" : 44,
          "right" : 43,
          "left" : 43
        }
      },
      "idiom" : "universal",
      "filename" : "small_grey_edit_button@3x.png",
      "scale" : "3x"
    }
  ],
  "info" : {
    "version" : 1,
    "author" : "xcode"
  }
}